Inserting 1000 elements into the Database
-------------------------------------------------
Testing. Finding Random element: 921
No element with key 921 is in the database
-------------------------------------------------
Testing. Finding Random element: 469
Key 469 was found! Here is the path to the key:
Level 1: (527, 99)
Level 2: (243, 511)
Level 3: (307, 306)  (417, 622)
Level 4: (444, 659)  (471, 79)
Level 5: (456, 53)
Level 6: (462, 980)  (469, 922)
-------------------------------------------------
Testing. Finding Random element: 557
No element with key 557 is in the database
-------------------------------------------------
Testing. Finding Random element: 958
No element with key 958 is in the database
-------------------------------------------------
Testing. Finding Random element: 416
Key 416 was found! Here is the path to the key:
Level 1: (527, 99)
Level 2: (243, 511)
Level 3: (307, 306)  (417, 622)
Level 4: (334, 824)  (376, 674)
Level 5: (394, 806)  (409, 256)
Level 6: (412, 537)
Level 7: (416, 832)
-------------------------------------------------
Testing. Finding Random element: 201
Key 201 was found! Here is the path to the key:
Level 1: (527, 99)
Level 2: (243, 511)
Level 3: (76, 143)  (162, 530)
Level 4: (201, 247)
-------------------------------------------------
Testing. Finding Random element: 994
Key 994 was found! Here is the path to the key:
Level 1: (527, 99)
Level 2: (709, 85)  (826, 470)
Level 3: (928, 328)
Level 4: (949, 66)
Level 5: (977, 219)
Level 6: (985, 30)
Level 7: (989, 70)  (992, 784)  (994, 437)
-------------------------------------------------
Testing. Finding Random element: 468
No element with key 468 is in the database
-------------------------------------------------
Testing. Finding Random element: 646
No element with key 646 is in the database
-------------------------------------------------
Testing. Finding Random element: 162
Key 212 was found! Here is the path to the key:
Level 1: (527, 99)
Level 2: (243, 511)
Level 3: (76, 143)  (162, 530)